%YAML 1.1
%TAG !u! tag:unity3d.com,2011:
--- !u!114 &11400000
MonoBehaviour:
  m_ObjectHideFlags: 0
  m_CorrespondingSourceObject: {fileID: 0}
  m_PrefabInstance: {fileID: 0}
  m_PrefabAsset: {fileID: 0}
  m_GameObject: {fileID: 0}
  m_Enabled: 1
  m_EditorHideFlags: 0
  m_Script: {fileID: 11500000, guid: c73c9caf25dee984d8fcd02663e40ad0, type: 3}
  m_Name: Monspown
  m_EditorClassIdentifier: 
  m_prefab: {fileID: 919132149155446097, guid: f0e6bb4090b00ed4b88a6479b2f5044e, type: 3}
