%YAML 1.1
%TAG !u! tag:unity3d.com,2011:
--- !u!1045 &1
EditorBuildSettings:
  m_ObjectHideFlags: 0
  serializedVersion: 2
  m_Scenes:
  - enabled: 1
    path: Assets/Project/MainMenu.unity
    guid: 112d529381d1f4048a112d7b7be27d33
  - enabled: 1
    path: Assets/Project/Gameplay.unity
    guid: 765c59373697afc49ae88e0b2fbd7529
  - enabled: 1
    path: Assets/Project/Lose.unity
    guid: 701dcd28051fdff4db2006e694a0811d
  m_configObjects:
    com.unity.input.settings: {fileID: 11400000, guid: 9e7be553448fa2546aea5752021cbcf7,
      type: 2}
